…
Behavior analysis
-----------------

    ## sert and revalue factors
    behavior$APA <- factor(behavior$APA, levels = c("control", "consistent", "conflict"))
    behavior$Genotype <- factor(behavior$Genotype, levels = c("WT", "FMR1KO"))
    behavior$Time1stEntrLog <- log(behavior$Time1stEntr) 

    ## behavior summary time
    behavior <- na.omit(behavior)
    behaviorsummaryNum <- dplyr::summarise(group_by(behavior, APA, Genotype, TrainSessionComboNum), m = mean(NumEntrances), se = sd(NumEntrances)/sqrt(length(NumEntrances)))
    behaviorsummaryNum

    ## Source: local data frame [54 x 5]
    ## Groups: APA, Genotype [?]
    ## 
    ##        APA Genotype TrainSessionComboNum        m        se
    ##     <fctr>   <fctr>                <int>    <dbl>     <dbl>
    ## 1  control       WT                    1 26.37500 2.0610114
    ## 2  control       WT                    2 12.00000 1.5118579
    ## 3  control       WT                    3 13.44444 0.8012336
    ## 4  control       WT                    4 17.57143 1.2883571
    ## 5  control       WT                    5 17.83333 2.8333333
    ## 6  control       WT                    6 17.22222 1.4979410
    ## 7  control       WT                    7 15.77778 1.4021588
    ## 8  control       WT                    8 13.75000 1.5323884
    ## 9  control       WT                    9 20.58333 1.9087452
    ## 10 control   FMR1KO                    1 28.57143 2.8440175
    ## # ... with 44 more rows
…
